PCB Specification created on                     : Nov 11 10:38:54 2021

Output specification for PCB job                 : pico_carrier.brd
Output Generated by                              : npes

Output files are archived in                     : pico_carrier-2021-Nov-11-10-38.zip



STACKUP: PRIMARY
    1: --------------  TOP                    (CONDUCTOR   	Er=1.000, T=0.030)
                                              (Loss=0.000, Func=CONDUCTOR , Mat=COPPER)
        ===========                           (DIELECTRIC  	Er=4.500, T=0.203)
                                              (Loss=0.035, Func=DIELECTRIC, Mat=FR-4  )
    2: --------------  BOTTOM                 (CONDUCTOR   	Er=1.000, T=0.030)
                                              (Loss=0.000, Func=CONDUCTOR , Mat=COPPER)

 Total Thickness: 0.264 millimeters
 Total Thickness without masks: 0.264 millimeters (Notice that no mask layers are defined in Stackup!



Minimum route width on layer:
	TOP        : 0.254000
	BOTTOM     : 0.254000
IPC 356:
      Netlist name                               : pico_carrier.ipc

      NOTICE: Always perform gerber to IPC netlist comparison!


NC Drill Data:
      Plated Drill file for layers 1-2           : pico_carrier-1-2.drl
      Non-Plated Drill file for layers 1-2       : pico_carrier-1-2-np.drl
      Drill file format specification            : nc_param.txt

Gerber Film:
      Data for top                               : 1_TOP.art
      Data for bottom                            : 2_BOTTOM.art
      Data for NCLEGEND-1-2                      : NCLEGEND-1-2.art
      Data for Board_outline                     : Board_outline.art
      Data for soldermask top                    : Soldermask_top.art
      Data for soldermask bottom                 : Soldermask_bot.art
      Data for pastemask top                     : Solderpaste_top.art
      Data for pastemask bottom                  : Solderpaste_bot.art
      Data for silkscreen top                    : Silkscreen_top.art
      Data for silkscreen bottom                 : Silkscreen_bot.art
      Data for Masterdrawing                     : Masterdrawing.art
      Data for Cutout                            : Cutout.art
      Artwork file format specification          : art_param.txt

Documentation:
      PDF File                                   : pico_carrier.pdf

Data created with Post Processing Release: 3.47
